pseudo-random/test_pseudo_random.vcd
$date
	Fri Dec 16 22:02:37 2022
$end
$version
	Icarus Verilog
$end
$timescale
	1s
$end
$scope module main $end
$var wire 3 ! out_pseudo_random [0:2] $end
$var reg 1 " clk_pseudo_random $end
$var reg 1 # reset_pseudo_random $end
$scope module test_pseudo_random $end
$var wire 1 $ c1 $end
$var wire 1 " clk $end
$var wire 1 # reset $end
$var wire 3 % Q [0:2] $end
$scope module g1 $end
$var wire 1 $ a $end
$var wire 1 & c1 $end
$var wire 1 " f $end
$var wire 1 ' out $end
$var wire 1 # reset $end
$var wire 1 ( c3 $end
$var wire 1 ) c2 $end
$scope module g1 $end
$var wire 1 $ a $end
$var wire 1 * c0 $end
$var wire 1 + c1 $end
$var wire 1 , c2 $end
$var wire 1 & f $end
$var wire 1 ) out2 $end
$var wire 1 - reset $end
$var wire 1 . out $end
$scope module g1 $end
$var wire 1 + a $end
$var wire 1 , b $end
$var wire 1 / c1 $end
$var wire 1 0 c2 $end
$var wire 1 * f $end
$var wire 1 . out $end
$upscope $end
$upscope $end
$scope module g2 $end
$var wire 1 ) a $end
$var wire 1 1 c0 $end
$var wire 1 2 c1 $end
$var wire 1 3 c2 $end
$var wire 1 " f $end
$var wire 1 ' out2 $end
$var wire 1 # reset $end
$var wire 1 ( out $end
$scope module g1 $end
$var wire 1 2 a $end
$var wire 1 3 b $end
$var wire 1 4 c1 $end
$var wire 1 5 c2 $end
$var wire 1 1 f $end
$var wire 1 ( out $end
$upscope $end
$upscope $end
$upscope $end
$scope module g2 $end
$var wire 1 6 a $end
$var wire 1 7 c1 $end
$var wire 1 " f $end
$var wire 1 8 out $end
$var wire 1 # reset $end
$var wire 1 9 c3 $end
$var wire 1 : c2 $end
$scope module g1 $end
$var wire 1 6 a $end
$var wire 1 ; c0 $end
$var wire 1 < c1 $end
$var wire 1 = c2 $end
$var wire 1 7 f $end
$var wire 1 : out2 $end
$var wire 1 > reset $end
$var wire 1 ? out $end
$scope module g1 $end
$var wire 1 < a $end
$var wire 1 = b $end
$var wire 1 @ c1 $end
$var wire 1 A c2 $end
$var wire 1 ; f $end
$var wire 1 ? out $end
$upscope $end
$upscope $end
$scope module g2 $end
$var wire 1 : a $end
$var wire 1 B c0 $end
$var wire 1 C c1 $end
$var wire 1 D c2 $end
$var wire 1 " f $end
$var wire 1 8 out2 $end
$var wire 1 # reset $end
$var wire 1 9 out $end
$scope module g1 $end
$var wire 1 C a $end
$var wire 1 D b $end
$var wire 1 E c1 $end
$var wire 1 F c2 $end
$var wire 1 B f $end
$var wire 1 9 out $end
$upscope $end
$upscope $end
$upscope $end
$scope module g3 $end
$var wire 1 G a $end
$var wire 1 H c1 $end
$var wire 1 " f $end
$var wire 1 I out $end
$var wire 1 # reset $end
$var wire 1 J c3 $end
$var wire 1 K c2 $end
$scope module g1 $end
$var wire 1 G a $end
$var wire 1 L c0 $end
$var wire 1 M c1 $end
$var wire 1 N c2 $end
$var wire 1 H f $end
$var wire 1 K out2 $end
$var wire 1 O reset $end
$var wire 1 P out $end
$scope module g1 $end
$var wire 1 M a $end
$var wire 1 N b $end
$var wire 1 Q c1 $end
$var wire 1 R c2 $end
$var wire 1 L f $end
$var wire 1 P out $end
$upscope $end
$upscope $end
$scope module g2 $end
$var wire 1 K a $end
$var wire 1 S c0 $end
$var wire 1 T c1 $end
$var wire 1 U c2 $end
$var wire 1 " f $end
$var wire 1 I out2 $end
$var wire 1 # reset $end
$var wire 1 J out $end
$scope module g1 $end
$var wire 1 T a $end
$var wire 1 U b $end
$var wire 1 V c1 $end
$var wire 1 W c2 $end
$var wire 1 S f $end
$var wire 1 J out $end
$upscope $end
$upscope $end
$upscope $end
$upscope $end
$upscope $end
$enddefinitions $end
#0
$dumpvars
xW
0V
xU
xT
0S
0R
xQ
xP
0O
xN
xM
1L
xK
xJ
xI
1H
xG
xF
0E
xD
xC
0B
0A
x@
x?
0>
x=
x<
1;
x:
x9
x8
17
x6
x5
04
x3
x2
01
00
x/
x.
0-
x,
x+
1*
x)
x(
x'
1&
bx %
x$
0#
0"
bx !
$end
#10
0,
1=
1N
1)
0:
0K
0.
1?
1P
0/
1@
1Q
0+
1<
1M
0$
16
03
1G
0D
0U
1'
18
b111 !
b111 %
1I
0(
09
0J
05
0F
0W
02
04
0C
0E
0T
0V
11
1B
1S
1#
#20
12
01
0B
0S
0#
#30
1+
1$
0<
06
13
b11 !
b11 %
0'
1A
1R
1(
0@
0Q
0*
14
0;
0L
0&
11
07
1B
0H
1S
1"
#40
0=
1C
1,
02
1:
0)
0?
1.
0A
0R
1/
15
1Q
1*
04
1;
1L
1&
01
17
0B
1H
0S
0"
#50
0+
0$
1<
16
03
0M
1'
0G
1D
10
0(
b101 !
b101 %
08
1R
0/
05
19
0Q
0*
0;
1E
0L
0&
11
07
1B
0H
1S
1"
#60
0,
12
0N
1T
1)
1=
0C
1K
0.
0:
0P
00
1?
0R
1@
1F
1*
1;
0E
1L
1&
01
17
0B
1H
0S
0"
#70
1M
0<
1G
0D
06
13
18
1U
0'
1A
09
b10 !
b10 %
0I
1(
0@
0F
1J
0*
14
0;
0L
1V
0&
11
07
1B
0H
1S
1"
#80
0=
1C
1:
1N
0T
0?
0K
0A
1P
15
1Q
1W
1*
04
1;
1L
0V
1&
01
17
0B
1H
0S
0"
#90
1+
1$
0M
0U
0G
1D
1I
b1 !
b1 %
08
1R
0J
05
19
0Q
0W
0*
14
0;
1E
0L
0&
11
07
1B
0H
1S
1"
#100
0N
1T
1,
02
1K
0)
0P
1.
0R
1/
15
1F
1*
04
1;
0E
1L
1&
01
17
0B
1H
0S
0"
#110
1<
1+
16
03
1$
1'
1U
10
0(
b100 !
b100 %
0I
0/
05
0F
1J
0*
0;
1E
0L
1V
0&
11
07
1B
0H
1S
1"
#120
1=
0C
0:
00
1?
1/
1@
1F
1W
1*
1;
0E
1L
0V
1&
01
17
0B
1H
0S
0"
#130
1M
1G
0D
b110 !
b110 %
18
10
1A
09
0/
0@
0F
0W
0*
0;
0L
1V
0&
11
07
1B
0H
1S
1"
#140
1N
0T
0K
00
0A
1P
1/
1@
1Q
1W
1*
1;
1L
0V
1&
01
17
0B
1H
0S
0"
#150
0+
0$
0U
b111 !
b111 %
1I
10
1A
1R
0J
0/
0@
0Q
0W
0*
0;
0L
0&
11
07
1B
0H
1S
1"
#160
0,
12
1)
0.
00
0A
0R
1@
1Q
1*
1;
1L
1&
01
17
0B
1H
0S
0"
#170
1+
1$
0<
06
13
b11 !
b11 %
0'
1A
1R
1(
0@
0Q
0*
14
0;
0L
0&
11
07
1B
0H
1S
1"
#180
0=
1C
1,
02
1:
0)
0?
1.
0A
0R
1/
15
1Q
1*
04
1;
1L
1&
01
17
0B
1H
0S
0"
#190
0+
0$
1<
16
03
0M
1'
0G
1D
10
0(
b101 !
b101 %
08
1R
0/
05
19
0Q
0*
0;
1E
0L
0&
11
07
1B
0H
1S
1"
#200
0,
12
0N
1T
1)
1=
0C
1K
0.
0:
0P
00
1?
0R
1@
1F
1*
1;
0E
1L
1&
01
17
0B
1H
0S
0"
#210
1M
0<
1G
0D
06
13
18
1U
0'
1A
09
b10 !
b10 %
0I
1(
0@
0F
1J
0*
14
0;
0L
1V
0&
11
07
1B
0H
1S
1"
#220
0=
1C
1:
1N
0T
0?
0K
0A
1P
15
1Q
1W
1*
04
1;
1L
0V
1&
01
17
0B
1H
0S
0"
#230
1+
1$
0M
0U
0G
1D
1I
b1 !
b1 %
08
1R
0J
05
19
0Q
0W
0*
14
0;
1E
0L
0&
11
07
1B
0H
1S
1"
#240
0N
1T
1,
02
1K
0)
0P
1.
0R
1/
15
1F
1*
04
1;
0E
1L
1&
01
17
0B
1H
0S
0"
#250
1<
1+
16
03
1$
1'
1U
10
0(
b100 !
b100 %
0I
0/
05
0F
1J
0*
0;
1E
0L
1V
0&
11
07
1B
0H
1S
1"
#260
1=
0C
0:
00
1?
1/
1@
1F
1W
1*
1;
0E
1L
0V
1&
01
17
0B
1H
0S
0"
#270
0,
1N
1)
0K
0.
1P
0/
1Q
0+
1M
0$
1G
0D
0U
18
b111 !
b111 %
1I
09
0J
0F
0W
0T
0V
11
1B
1S
1#
#280
12
01
0B
0S
0#
