pseudo-random/test_pseudo_random.vcd
$date
	Fri Dec 16 13:55:22 2022
$end
$version
	Icarus Verilog
$end
$timescale
	1s
$end
$scope module main $end
$var wire 1 ! out_flip_flop $end
$var wire 3 " out_pseudo_random [0:2] $end
$var wire 1 # out_mux $end
$var wire 1 $ out_latch_n $end
$var wire 1 % out_latch $end
$var reg 1 & a_flip_flop $end
$var reg 1 ' a_latch $end
$var reg 1 ( a_mux $end
$var reg 1 ) b_mux $end
$var reg 1 * clk_flip_flop $end
$var reg 1 + clk_pseudo_random $end
$var reg 1 , f_latch $end
$var reg 1 - f_mux $end
$var reg 1 . reset_flip_flop $end
$var reg 1 / reset_latch $end
$var reg 1 0 reset_pseudo_random $end
$scope module test_flip_flop $end
$var wire 1 & a $end
$var wire 1 1 c1 $end
$var wire 1 * f $end
$var wire 1 ! out $end
$var wire 1 . reset $end
$var wire 1 2 c3 $end
$var wire 1 3 c2 $end
$scope module g1 $end
$var wire 1 & a $end
$var wire 1 4 c0 $end
$var wire 1 5 c1 $end
$var wire 1 6 c2 $end
$var wire 1 1 f $end
$var wire 1 3 out2 $end
$var wire 1 7 reset $end
$var wire 1 8 out $end
$scope module g1 $end
$var wire 1 5 a $end
$var wire 1 6 b $end
$var wire 1 9 c1 $end
$var wire 1 : c2 $end
$var wire 1 4 f $end
$var wire 1 8 out $end
$upscope $end
$upscope $end
$scope module g2 $end
$var wire 1 3 a $end
$var wire 1 ; c0 $end
$var wire 1 < c1 $end
$var wire 1 = c2 $end
$var wire 1 * f $end
$var wire 1 ! out2 $end
$var wire 1 . reset $end
$var wire 1 2 out $end
$scope module g1 $end
$var wire 1 < a $end
$var wire 1 = b $end
$var wire 1 > c1 $end
$var wire 1 ? c2 $end
$var wire 1 ; f $end
$var wire 1 2 out $end
$upscope $end
$upscope $end
$upscope $end
$scope module test_latch $end
$var wire 1 ' a $end
$var wire 1 @ c0 $end
$var wire 1 A c1 $end
$var wire 1 B c2 $end
$var wire 1 , f $end
$var wire 1 $ out2 $end
$var wire 1 / reset $end
$var wire 1 % out $end
$scope module g1 $end
$var wire 1 A a $end
$var wire 1 B b $end
$var wire 1 C c1 $end
$var wire 1 D c2 $end
$var wire 1 @ f $end
$var wire 1 % out $end
$upscope $end
$upscope $end
$scope module test_mux $end
$var wire 1 ( a $end
$var wire 1 ) b $end
$var wire 1 E c1 $end
$var wire 1 F c2 $end
$var wire 1 - f $end
$var wire 1 # out $end
$upscope $end
$scope module test_pseudo_random $end
$var wire 1 G c1 $end
$var wire 1 + clk $end
$var wire 1 0 reset $end
$var wire 3 H Q [0:2] $end
$scope module g1 $end
$var wire 1 G a $end
$var wire 1 I c1 $end
$var wire 1 + f $end
$var wire 1 J out $end
$var wire 1 0 reset $end
$var wire 1 K c3 $end
$var wire 1 L c2 $end
$scope module g1 $end
$var wire 1 G a $end
$var wire 1 M c0 $end
$var wire 1 N c1 $end
$var wire 1 O c2 $end
$var wire 1 I f $end
$var wire 1 L out2 $end
$var wire 1 P reset $end
$var wire 1 Q out $end
$scope module g1 $end
$var wire 1 N a $end
$var wire 1 O b $end
$var wire 1 R c1 $end
$var wire 1 S c2 $end
$var wire 1 M f $end
$var wire 1 Q out $end
$upscope $end
$upscope $end
$scope module g2 $end
$var wire 1 L a $end
$var wire 1 T c0 $end
$var wire 1 U c1 $end
$var wire 1 V c2 $end
$var wire 1 + f $end
$var wire 1 J out2 $end
$var wire 1 0 reset $end
$var wire 1 K out $end
$scope module g1 $end
$var wire 1 U a $end
$var wire 1 V b $end
$var wire 1 W c1 $end
$var wire 1 X c2 $end
$var wire 1 T f $end
$var wire 1 K out $end
$upscope $end
$upscope $end
$upscope $end
$scope module g2 $end
$var wire 1 Y a $end
$var wire 1 Z c1 $end
$var wire 1 + f $end
$var wire 1 [ out $end
$var wire 1 0 reset $end
$var wire 1 \ c3 $end
$var wire 1 ] c2 $end
$scope module g1 $end
$var wire 1 Y a $end
$var wire 1 ^ c0 $end
$var wire 1 _ c1 $end
$var wire 1 ` c2 $end
$var wire 1 Z f $end
$var wire 1 ] out2 $end
$var wire 1 a reset $end
$var wire 1 b out $end
$scope module g1 $end
$var wire 1 _ a $end
$var wire 1 ` b $end
$var wire 1 c c1 $end
$var wire 1 d c2 $end
$var wire 1 ^ f $end
$var wire 1 b out $end
$upscope $end
$upscope $end
$scope module g2 $end
$var wire 1 ] a $end
$var wire 1 e c0 $end
$var wire 1 f c1 $end
$var wire 1 g c2 $end
$var wire 1 + f $end
$var wire 1 [ out2 $end
$var wire 1 0 reset $end
$var wire 1 \ out $end
$scope module g1 $end
$var wire 1 f a $end
$var wire 1 g b $end
$var wire 1 h c1 $end
$var wire 1 i c2 $end
$var wire 1 e f $end
$var wire 1 \ out $end
$upscope $end
$upscope $end
$upscope $end
$scope module g3 $end
$var wire 1 j a $end
$var wire 1 k c1 $end
$var wire 1 + f $end
$var wire 1 l out $end
$var wire 1 0 reset $end
$var wire 1 m c3 $end
$var wire 1 n c2 $end
$scope module g1 $end
$var wire 1 j a $end
$var wire 1 o c0 $end
$var wire 1 p c1 $end
$var wire 1 q c2 $end
$var wire 1 k f $end
$var wire 1 n out2 $end
$var wire 1 r reset $end
$var wire 1 s out $end
$scope module g1 $end
$var wire 1 p a $end
$var wire 1 q b $end
$var wire 1 t c1 $end
$var wire 1 u c2 $end
$var wire 1 o f $end
$var wire 1 s out $end
$upscope $end
$upscope $end
$scope module g2 $end
$var wire 1 n a $end
$var wire 1 v c0 $end
$var wire 1 w c1 $end
$var wire 1 x c2 $end
$var wire 1 + f $end
$var wire 1 l out2 $end
$var wire 1 0 reset $end
$var wire 1 m out $end
$scope module g1 $end
$var wire 1 w a $end
$var wire 1 x b $end
$var wire 1 y c1 $end
$var wire 1 z c2 $end
$var wire 1 v f $end
$var wire 1 m out $end
$upscope $end
$upscope $end
$upscope $end
$upscope $end
$upscope $end
$enddefinitions $end
#0
$dumpvars
xz
xy
xx
xw
xv
xu
xt
xs
0r
xq
xp
xo
xn
xm
xl
xk
xj
xi
xh
xg
xf
xe
xd
xc
xb
0a
x`
x_
x^
x]
x\
x[
xZ
xY
xX
xW
xV
xU
xT
xS
xR
xQ
0P
xO
xN
xM
xL
xK
xJ
xI
bx H
xG
0F
0E
xD
xC
xB
xA
x@
x?
x>
x=
x<
x;
x:
x9
x8
07
x6
x5
x4
x3
x2
x1
x0
x/
x.
0-
x,
x+
x*
0)
0(
x'
x&
x%
x$
0#
bx "
x!
$end
#10
1(
#20
1#
1E
1-
#30
1)
#40
0#
0E
0(
#50
1#
0C
1F
0A
0@
0/
0'
0,
0-
#60
1A
1'
#70
1B
0$
1%
0D
1C
1@
1,
#80
1D
0C
0@
0,
#90
0A
0'
#100
0B
1$
0%
0D
1@
1,
#110
0@
0,
#120
1@
1/
#130
06
1<
13
08
0:
09
14
0>
05
11
0;
0.
0&
0*
#140
1=
0!
12
0?
04
1>
01
1;
1*
#150
1?
14
0>
11
0;
0*
#160
16
0<
03
18
19
15
1&
#170
0=
1!
1:
02
09
0?
04
01
1;
1*
#180
05
0&
#190
06
1<
13
08
0:
14
11
0;
0*
#210
1=
0!
12
04
1>
01
1;
1*
#220
15
1&
#230
16
0<
03
18
19
1?
14
0>
11
0;
0*
#240
0=
1!
0S
0d
0u
02
0?
1M
0W
1^
0h
1o
0y
1I
0T
1Z
0e
1k
0v
1;
00
0+
1.
#250
0O
1`
1q
1L
0]
0n
0Q
1b
1s
0R
1c
1t
0N
1_
1p
0G
1Y
0V
1j
0g
0x
1J
1[
b111 "
b111 H
1l
0K
0\
0m
0X
0i
0z
0U
0W
0f
0h
0w
0y
1T
1e
1v
10
#260
1U
0T
0e
0v
00
#270
1N
1G
0_
0Y
1V
b11 "
b11 H
0J
1d
1u
1K
0c
0t
0M
1W
0^
0o
0I
1T
0Z
1e
0k
1v
1+
#280
0`
1f
1O
0U
1]
0L
0b
1Q
0d
0u
1R
1X
1t
1M
0W
1^
1o
1I
0T
1Z
0e
1k
0v
0+
#290
0N
0G
1_
1Y
0V
0p
1J
0j
1g
1S
0K
b101 "
b101 H
0[
1u
0R
0X
1\
0t
0M
0^
1h
0o
0I
1T
0Z
1e
0k
1v
1+
#300
0O
1U
0q
1w
1L
1`
0f
1n
0Q
0]
0s
0S
1b
0u
1c
1i
1M
1^
0h
1o
1I
0T
1Z
0e
1k
0v
0+
#310
1p
0_
1j
0g
0Y
1V
1[
1x
0J
1d
0\
b10 "
b10 H
0l
1K
0c
0i
1m
0M
1W
0^
0o
1y
0I
1T
0Z
1e
0k
1v
1+
#320
0`
1f
1]
1q
0w
0b
0n
0d
1s
1X
1t
1z
1M
0W
1^
1o
0y
1I
0T
1Z
0e
1k
0v
0+
#330
1N
1G
0p
0x
0j
1g
1l
b1 "
b1 H
0[
1u
0m
0X
1\
0t
0z
0M
1W
0^
1h
0o
0I
1T
0Z
1e
0k
1v
1+
#340
0q
1w
1O
0U
1n
0L
0s
1Q
0u
1R
1X
1i
1M
0W
1^
0h
1o
1I
0T
1Z
0e
1k
0v
0+
#350
1_
1N
1Y
0V
1G
1J
1x
1S
0K
b100 "
b100 H
0l
0R
0X
0i
1m
0M
0^
1h
0o
1y
0I
1T
0Z
1e
0k
1v
1+
#360
1`
0f
0]
0S
1b
1R
1c
1i
1z
1M
1^
0h
1o
0y
1I
0T
1Z
0e
1k
0v
0+
#370
1p
1j
0g
b110 "
b110 H
1[
1S
1d
0\
0R
0c
0i
0z
0M
0^
0o
1y
0I
1T
0Z
1e
0k
1v
1+
#380
1q
0w
0n
0S
0d
1s
1R
1c
1t
1z
1M
1^
1o
0y
1I
0T
1Z
0e
1k
0v
0+
#390
0N
0G
0x
b111 "
b111 H
1l
1S
1d
1u
0m
0R
0c
0t
0z
0M
0^
0o
0I
1T
0Z
1e
0k
1v
1+
#400
0O
1U
1L
0Q
0S
0d
0u
1c
1t
1M
1^
1o
1I
0T
1Z
0e
1k
0v
0+
#410
1N
1G
0_
0Y
1V
b11 "
b11 H
0J
1d
1u
1K
0c
0t
0M
1W
0^
0o
0I
1T
0Z
1e
0k
1v
1+
#420
0`
1f
1O
0U
1]
0L
0b
1Q
0d
0u
1R
1X
1t
1M
0W
1^
1o
1I
0T
1Z
0e
1k
0v
0+
#430
0N
0G
1_
1Y
0V
0p
1J
0j
1g
1S
0K
b101 "
b101 H
0[
1u
0R
0X
1\
0t
0M
0^
1h
0o
0I
1T
0Z
1e
0k
1v
1+
#440
0O
1U
0q
1w
1L
1`
0f
1n
0Q
0]
0s
0S
1b
0u
1c
1i
1M
1^
0h
1o
1I
0T
1Z
0e
1k
0v
0+
#450
1p
0_
1j
0g
0Y
1V
1[
1x
0J
1d
0\
b10 "
b10 H
0l
1K
0c
0i
1m
0M
1W
0^
0o
1y
0I
1T
0Z
1e
0k
1v
1+
#460
0`
1f
1]
1q
0w
0b
0n
0d
1s
1X
1t
1z
1M
0W
1^
1o
0y
1I
0T
1Z
0e
1k
0v
0+
#470
1N
1G
0p
0x
0j
1g
1l
b1 "
b1 H
0[
1u
0m
0X
1\
0t
0z
0M
1W
0^
1h
0o
0I
1T
0Z
1e
0k
1v
1+
#480
0q
1w
1O
0U
1n
0L
0s
1Q
0u
1R
1X
1i
1M
0W
1^
0h
1o
1I
0T
1Z
0e
1k
0v
0+
#490
1_
1N
1Y
0V
1G
1J
1x
1S
0K
b100 "
b100 H
0l
0R
0X
0i
1m
0M
0^
1h
0o
1y
0I
1T
0Z
1e
0k
1v
1+
#500
1`
0f
0]
0S
1b
1R
1c
1i
1z
1M
1^
0h
1o
0y
1I
0T
1Z
0e
1k
0v
0+
#510
0O
1q
1L
0n
0Q
1s
0R
1t
0N
1p
0G
1j
0g
0x
1[
b111 "
b111 H
1l
0\
0m
0i
0z
0w
0y
1T
1e
1v
10
#520
1U
0T
0e
0v
00
